saidas_GtkWave/resposta_ula_1bit.vcd
$date
  Sat Jul 21 09:40:04 2018
$end
$version
  GHDL v0
$end
$timescale
  1 fs
$end
$var reg 1 ! test_a $end
$var reg 1 " test_b $end
$var reg 1 # test_cin $end
$var reg 3 $ test_s[2:0] $end
$var reg 1 % test_f $end
$var reg 1 & test_cout $end
$scope module uut $end
$var reg 1 ' a $end
$var reg 1 ( b $end
$var reg 3 ) s[2:0] $end
$var reg 1 * cin $end
$var reg 1 + f $end
$var reg 1 , cout $end
$upscope $end
$enddefinitions $end
#0
0!
0"
0#
b000 $
0%
U&
0'
0(
b000 )
0*
0+
U,
#200000000
b001 $
1%
b001 )
1+
#400000000
b010 $
0%
b010 )
0+
#600000000
b011 $
1%
b011 )
1+
#800000000
b100 $
0%
0&
b100 )
0+
0,
#1000000000
b101 $
1%
b101 )
1+
#1200000000
b110 $
0%
b110 )
0+
#1400000000
b111 $
1%
b111 )
1+
#1600000000
1"
b000 $
0%
1(
b000 )
0+
#1800000000
b001 $
1%
b001 )
1+
#2000000000
b010 $
b010 )
#2200000000
b011 $
0%
b011 )
0+
#2400000000
b100 $
b100 )
#2600000000
b101 $
1%
b101 )
1+
#2800000000
b110 $
b110 )
#3000000000
b111 $
0%
1&
b111 )
0+
1,
#3200000000
1!
0"
b000 $
1%
1'
0(
b000 )
1+
#3400000000
b001 $
0%
b001 )
0+
#3600000000
b010 $
1%
b010 )
1+
#3800000000
b011 $
0%
b011 )
0+
#4000000000
b100 $
1%
0&
b100 )
1+
0,
#4200000000
b101 $
0%
b101 )
0+
#4400000000
b110 $
1%
b110 )
1+
#4600000000
b111 $
0%
b111 )
0+
#4800000000
1"
b000 $
1%
1(
b000 )
1+
#5000000000
b001 $
0%
b001 )
0+
#5200000000
b010 $
b010 )
#5400000000
b011 $
1%
b011 )
1+
#5600000000
b100 $
b100 )
#5800000000
b101 $
0%
b101 )
0+
#6000000000
b110 $
1&
b110 )
1,
#6200000000
b111 $
1%
0&
b111 )
1+
0,
#6400000000
0!
0"
1#
b000 $
0%
0'
0(
b000 )
1*
0+
#6600000000
b001 $
1%
b001 )
1+
#6800000000
b010 $
0%
b010 )
0+
#7000000000
b011 $
1%
b011 )
1+
#7200000000
b100 $
b100 )
#7400000000
b101 $
0%
1&
b101 )
0+
1,
#7600000000
b110 $
1%
0&
b110 )
1+
0,
#7800000000
b111 $
0%
1&
b111 )
0+
1,
#8000000000
1"
b000 $
1(
b000 )
#8200000000
b001 $
1%
b001 )
1+
#8400000000
b010 $
b010 )
#8600000000
b011 $
0%
b011 )
0+
#8800000000
b100 $
1%
0&
b100 )
1+
0,
#9000000000
b101 $
0%
1&
b101 )
0+
1,
#9200000000
b110 $
b110 )
#9400000000
b111 $
1%
b111 )
1+
#9600000000
1!
0"
b000 $
1'
0(
b000 )
#9800000000
b001 $
0%
b001 )
0+
#10000000000
b010 $
1%
b010 )
1+
#10200000000
b011 $
0%
b011 )
0+
#10400000000
b100 $
b100 )
#10600000000
b101 $
1%
0&
b101 )
1+
0,
#10800000000
b110 $
0%
1&
b110 )
0+
1,
#11000000000
b111 $
1%
0&
b111 )
1+
0,
#11200000000
1"
b000 $
1(
b000 )
#11400000000
b001 $
0%
b001 )
0+
#11600000000
b010 $
b010 )
#11800000000
b011 $
1%
b011 )
1+
#12000000000
b100 $
0%
1&
b100 )
0+
1,
#12200000000
b101 $
1%
0&
b101 )
1+
0,
#12400000000
b110 $
1&
b110 )
1,
#12600000000
b111 $
0%
b111 )
0+
