saidas_GtkWave/resposta_ula_3bits.vcd
$date
  Sat Jul 21 09:49:12 2018
$end
$version
  GHDL v0
$end
$timescale
  1 fs
$end
$var reg 3 ! test_a[2:0] $end
$var reg 3 " test_b[2:0] $end
$var reg 3 # test_s[2:0] $end
$var reg 3 $ test_f[2:0] $end
$var reg 1 % test_cout $end
$var reg 1 & test_cin $end
$scope module uut $end
$var reg 3 ' a_input[2:0] $end
$var reg 3 ( b_input[2:0] $end
$var reg 3 ) s_input[2:0] $end
$var reg 1 * cin_input $end
$var reg 1 + cout $end
$var reg 3 , f[2:0] $end
$var reg 1 - tmp1 $end
$var reg 1 . tmp2 $end
$scope module u1 $end
$var reg 1 / a $end
$var reg 1 0 b $end
$var reg 3 1 s[2:0] $end
$var reg 1 2 cin $end
$var reg 1 3 f $end
$var reg 1 4 cout $end
$upscope $end
$scope module u2 $end
$var reg 1 5 a $end
$var reg 1 6 b $end
$var reg 3 7 s[2:0] $end
$var reg 1 8 cin $end
$var reg 1 9 f $end
$var reg 1 : cout $end
$upscope $end
$scope module u3 $end
$var reg 1 ; a $end
$var reg 1 < b $end
$var reg 3 = s[2:0] $end
$var reg 1 > cin $end
$var reg 1 ? f $end
$var reg 1 @ cout $end
$upscope $end
$upscope $end
$enddefinitions $end
#0
b000 !
b000 "
b000 #
b000 $
U%
0&
b000 '
b000 (
b000 )
0*
U+
b000 ,
U-
U.
0/
00
b000 1
02
03
U4
05
06
b000 7
U8
09
U:
0;
0<
b000 =
U>
0?
U@
#200000000
b001 #
b111 $
b001 )
b111 ,
b001 1
13
b001 7
19
b001 =
1?
#400000000
b010 #
b000 $
b010 )
b000 ,
b010 1
03
b010 7
09
b010 =
0?
#600000000
b011 #
b111 $
b011 )
b111 ,
b011 1
13
b011 7
19
b011 =
1?
#800000000
b100 #
b000 $
b100 )
b000 ,
0-
0.
b100 1
03
04
b100 7
08
09
0:
b100 =
0>
0?
0@
#1000000000
b101 #
b111 $
b101 )
b111 ,
b101 1
13
04
b101 7
19
b101 =
1?
0@
#1200000000
b110 #
b000 $
b110 )
b000 ,
b110 1
03
04
b110 7
09
b110 =
0?
0@
#1400000000
b111 #
b111 $
b111 )
b111 ,
b111 1
13
04
b111 7
19
b111 =
1?
0@
#1600000000
b001 !
b000 #
b001 $
b001 '
b000 )
b001 ,
b000 1
03
b000 7
09
1;
b000 =
#1800000000
b001 #
b110 $
b001 )
b110 ,
b001 1
13
b001 7
19
b001 =
0?
#2000000000
b010 #
b001 $
b010 )
b001 ,
b010 1
03
b010 7
09
b010 =
1?
#2200000000
b011 #
b110 $
b011 )
b110 ,
b011 1
13
b011 7
19
b011 =
0?
#2400000000
b100 #
b001 $
b100 )
b001 ,
b100 1
03
04
b100 7
09
b100 =
1?
0@
#2600000000
b101 #
b110 $
b101 )
b110 ,
b101 1
13
04
b101 7
19
b101 =
0?
0@
#2800000000
b110 #
b001 $
b110 )
b001 ,
b110 1
03
04
b110 7
09
b110 =
1?
0@
#3000000000
b111 #
b110 $
b111 )
b110 ,
b111 1
13
04
b111 7
19
b111 =
0?
0@
#3200000000
b001 "
b000 #
b001 $
b001 (
b000 )
b001 ,
b000 1
03
b000 7
09
1<
b000 =
1?
#3400000000
b001 #
b110 $
b001 )
b110 ,
b001 1
13
b001 7
19
b001 =
0?
#3600000000
b010 #
b000 $
b010 )
b000 ,
b010 1
03
b010 7
09
b010 =
#3800000000
b011 #
b111 $
b011 )
b111 ,
b011 1
13
b011 7
19
b011 =
1?
#4000000000
b100 #
b001 $
b100 )
b001 ,
b100 1
03
04
b100 7
09
b100 =
0@
